%YAML 1.1
%TAG !u! tag:unity3d.com,2011:
--- !u!114 &11400000
MonoBehaviour:
  m_ObjectHideFlags: 0
  m_CorrespondingSourceObject: {fileID: 0}
  m_PrefabInstance: {fileID: 0}
  m_PrefabAsset: {fileID: 0}
  m_GameObject: {fileID: 0}
  m_Enabled: 1
  m_EditorHideFlags: 0
  m_Script: {fileID: 11500000, guid: ef4e9994ce87d4f4fa66117e4b580416, type: 3}
  m_Name: SelectRandomPoint
  m_EditorClassIdentifier: 
  _actions:
  - {fileID: 11400000, guid: 039a5c2f8d66c344d893d85e5c18e354, type: 2}
  _transitions:
  - _decision: {fileID: 0}
    _trueBehaviour: {fileID: 0}
    _falseBehaviour: {fileID: 0}
    _defaultBehaviour: {fileID: 11400000, guid: 06b8c3a4234236c408e21b3683918ca7,
      type: 2}
